-------------------------------------------------------------------------------
Test set: com.epam.training.ParameterizedSortingTest
-------------------------------------------------------------------------------
Tests run: 9, Failures: 0, Errors: 0, Skipped: 0, Time elapsed: 0.19 sec
