-------------------------------------------------------------------------------
Test set: com.epam.training.ParseTest
-------------------------------------------------------------------------------
Tests run: 6, Failures: 0, Errors: 0, Skipped: 0, Time elapsed: 0.01 sec
