C:\Users\Befors\IdeaProjects\UpSkill\Sorting App\src\test\java\com\epam\training\ParseTest.java
C:\Users\Befors\IdeaProjects\UpSkill\Sorting App\src\test\java\com\epam\training\ParameterizedSortingTest.java
C:\Users\Befors\IdeaProjects\UpSkill\Sorting App\src\test\java\com\epam\training\SortingTest.java
